{
  "comments": [
    {
      "cid": "7300000000000000001",
      "text": "Great video! Very helpful 🔥",
      "create_time": 1710700900,
      "digg_count": 50,
      "reply_comment_total": 3,
      "is_author_digged": true,
      "user": {
        "uid": "6800000000000000010",
        "unique_id": "commenter1",
        "nickname": "Commenter One",
        "avatar_larger": "https://p16-sign.tiktokcdn.com/commenter1.jpeg"
      }
    },
    {
      "cid": "7300000000000000002",
      "text": "Can you do a part 2?",
      "create_time": 1710701000,
      "digg_count": 12,
      "reply_comment_total": 0,
      "is_author_digged": false,
      "user": {
        "uid": "6800000000000000011",
        "unique_id": "commenter2",
        "nickname": "Commenter Two",
        "avatar_larger": "https://p16-sign.tiktokcdn.com/commenter2.jpeg"
      }
    }
  ],
  "has_more": true,
  "cursor": 2,
  "total": 300
}
